MAQUINA,USUARIO,S_OPERACIONAL,MEMORIA_GB
"XXA","chaves","Linux Ubuntu 14.04",4
"YYC","madruga","Windows XP",4
"NVE","dneves","Windows ME",4
"CHI","chiquinha","Windows 8",8
"ZZA","kiko","Windows 10",8
"KKT","dflorinda","Windows 10",8
