| ENTRADA    | SAIDA      | MAQUINA | LATITUDE    | LONGITUDE   |
| ---------- | ---------- | ------- | ----------- | ----------- |
| 2019-09-09 | 2019-10-01 | KKT     | 35.3605556  | 138.7277777 |
| 2019-10-02 | 2019-10-14 | KKT     | 40.4319077  | 116.5681862 |
| 2019-10-15 | 2019-11-04 | KKT     | -23.5710816 | -46.6467295 |
| 2020-01-01 | 2020-01-14 | KKT     | -23.5710816 | -46.6467295 |
| 2019-10-01 | 2019-10-14 | YYC     | 40.4319077  | 116.5681862 |
| 2019-10-15 | 2019-11-01 | YYC     | 35.3605556  | 138.7277777 |
| 2019-11-02 | 2019-11-21 | YYC     | 40.4319077  | 116.5681862 |
| 2019-11-22 | 2020-01-04 | YYC     | 35.3605556  | 138.7277777 |
